{
  "globalDependencies": {
    "angular": "registry:dt/angular#1.5.0+20160627105203",
    "angular-route": "registry:dt/angular-route#1.3.0+20160317120654",
    "jquery": "registry:dt/jquery#1.10.0+20160704162008"
  }
}
